**=Legends=**

<div><div style="display: inline; background: var(--pinned); color: #0000">___</div> : Pinned</div>
<div><div style="display: inline; background: var(--bad); color: #0000">___</div> : Untested/Broken</div>
